Homework4
…
glass|> mutate(typ2=ifelse(glass$typ==1,"Building_Windows_float_processed",
                ifelse(glass$typ==2,"Building_Windows_non_Float_Processed",

                               ifelse(glass$typ==3,"Vehicle_Windows_Float_Processed",
                                      ifelse(glass$typ==4,"Vehicle_Windows_Non_Float_Processed",
                                             ifelse(glass$typ==5,"Containers",
                                                    ifelse(glass$typ==6,"Tableware",
                                                           ifelse(glass$typ==7,"Headlamps","Other"))))   )
                           ) ) ) |>
  
               filter(Fe <0.2 & (typ2=='Tableware' | typ2=='Headlamps'))

# A tibble: 38 × 12
      ID    RI    Na    Mg    Al    Si     K    Ca    Ba    Fe   typ typ2     
   <dbl> <dbl> <dbl> <dbl> <dbl> <dbl> <dbl> <dbl> <dbl> <dbl> <dbl> <chr>    
 1   177  1.52  14    2.39  1.56  72.4  0     9.57  0        0     6 Tableware
 2   178  1.52  13.8  2.41  1.19  72.8  0     9.77  0        0     6 Tableware
 3   179  1.52  14.5  2.24  1.62  72.4  0     9.26  0        0     6 Tableware
 4   180  1.52  14.1  2.19  1.66  72.7  0     9.32  0        0     6 Tableware
 5   181  1.51  14.4  1.74  1.54  74.6  0     7.59  0        0     6 Tableware
 6   182  1.52  15.0  0.78  1.74  72.5  0     9.95  0        0     6 Tableware
 7   183  1.52  14.2  0     2.09  72.7  0    10.9   0        0     6 Tableware
 8   184  1.52  14.6  0     0.56  73.5  0    11.2   0        0     6 Tableware
 9   185  1.51  17.4  0     0.34  75.4  0     6.65  0        0     6 Tableware
10   186  1.51  13.7  3.2   1.81  72.8  1.76  5.43  1.19     0     7 Headlamps
# ℹ 28 more rows
…
yeast |>
  select(2:7,10) |>
    group_by(class) |>
  mutate(across(where(is.numeric),list(mean=mean, median=median), .names = "{.col}_{.fn}"))

# A tibble: 1,484 × 19
# Groups:   class [10]
     mcg   gvh   alm   mit   erl   pox class mcg_mean mcg_median gvh_mean
   <dbl> <dbl> <dbl> <dbl> <dbl> <dbl> <chr>    <dbl>      <dbl>    <dbl>
 1  0.58  0.61  0.47  0.13   0.5   0   MIT      0.521       0.51    0.533
 2  0.43  0.67  0.48  0.27   0.5   0   MIT      0.521       0.51    0.533
 3  0.64  0.62  0.49  0.15   0.5   0   MIT      0.521       0.51    0.533
 4  0.58  0.44  0.57  0.13   0.5   0   NUC      0.452       0.45    0.456
 5  0.42  0.44  0.48  0.54   0.5   0   MIT      0.521       0.51    0.533
 6  0.51  0.4   0.56  0.17   0.5   0.5 CYT      0.481       0.48    0.470
 7  0.5   0.54  0.48  0.65   0.5   0   MIT      0.521       0.51    0.533
 8  0.48  0.45  0.59  0.2    0.5   0   NUC      0.452       0.45    0.456
 9  0.55  0.5   0.66  0.36   0.5   0   MIT      0.521       0.51    0.533
10  0.4   0.39  0.6   0.15   0.5   0   CYT      0.481       0.48    0.470
# ℹ 1,474 more rows
# ℹ 9 more variables: gvh_median <dbl>, alm_mean <dbl>, alm_median <dbl>,
#   mit_mean <dbl>, mit_median <dbl>, erl_mean <dbl>, erl_median <dbl>,
#   pox_mean <dbl>, pox_median <dbl>

Task 3: Combining Excel and Delimited Data

#Reading in White Wine 1st sheet
wwine<-read_excel("white-wine.xlsx",
                sheet=excel_sheets("white-wine.xlsx")[1]  )
wwine

# A tibble: 4,898 × 12
   `fixed acidity` `volatile acidity` `citric acid` `residual sugar` chlorides
             <dbl>              <dbl>         <dbl>            <dbl>     <dbl>
 1               7               0.27          0.36             20.7     0.045
 2              63               0.3           0.34              1.6     0.049
 3              81               0.28          0.4               6.9     0.05 
 4              72               0.23          0.32              8.5     0.058
 5              72               0.23          0.32              8.5     0.058
 6              81               0.28          0.4               6.9     0.05 
 7              62               0.32          0.16              7       0.045
 8               7               0.27          0.36             20.7     0.045
 9              63               0.3           0.34              1.6     0.049
10              81               0.22          0.43              1.5     0.044
# ℹ 4,888 more rows
# ℹ 7 more variables: `free sulfur dioxide` <dbl>,
#   `total sulfur dioxide` <dbl>, density <dbl>, pH <dbl>, sulphates <dbl>,
#   alcohol <dbl>, quality <dbl>
…
#Combining Data Sets
allwine<-bind_rows(rwine,wwine)

allwine$alcohol<-as.numeric(allwine$alcohol)

allwine |>
  filter(quality >6.5) |>
   arrange(desc(quality)) |>
    select(`citric acid`,alcohol,type,quality) |>
     group_by(quality)|>
 mutate(mean=mean(allwine$alcohol),
        sd=sd(allwine$alcohol))

# A tibble: 1,277 × 6
# Groups:   quality [3]
   `citric acid` alcohol type  quality    mean      sd
           <dbl>   <dbl> <chr>   <dbl>   <dbl>   <dbl>
 1         NA      104   White       9 1.37e12 3.01e13
 2         NA      124   White       9 1.37e12 3.01e13
 3         NA      125   White       9 1.37e12 3.01e13
 4         NA      127   White       9 1.37e12 3.01e13
 5         NA      129   White       9 1.37e12 3.01e13
 6          0.46    12.8 Red         8 1.37e12 3.01e13
 7          0.45    12.6 Red         8 1.37e12 3.01e13
 8          0.05    12.9 Red         8 1.37e12 3.01e13
 9          0.72     9.8 Red         8 1.37e12 3.01e13
10          0.67    13.4 Red         8 1.37e12 3.01e13
# ℹ 1,267 more rows
